{
  "lastUpdateId": 16690403739,
  "bids": [
    ["38543.48000000", "1.10197000"],
    ["38543.06000000", "0.00389000"],
    ["38539.43000000", "0.06600000"],
    ["38537.71000000", "0.01734000"],
    ["38536.30000000", "0.00100000"],
    ["38535.80000000", "0.23898000"],
    ["38535.53000000", "0.57068000"],
    ["38534.21000000", "0.10118000"],
    ["38534.19000000", "0.21211000"],
    ["38534.17000000", "0.34189000"]
  ],
  "asks": [
    ["38543.49000000", "0.02923000"],
    ["38546.60000000", "0.01007000"],
    ["38546.61000000", "0.01222000"],
    ["38546.62000000", "0.01079000"],
    ["38547.84000000", "0.04159000"],
    ["38547.85000000", "0.10381000"],
    ["38549.48000000", "0.02956000"],
    ["38553.06000000", "0.38959000"],
    ["38553.07000000", "0.05834000"],
    ["38553.13000000", "0.25289000"]
  ]
}
